{
	"totalElements": 50,
	"currentPage": 1,
	"totalPages": 5,
	"requests": [
		{
			"id": 1,
			"date": "2022-02-14T12:41:22.482Z",
			"status": "GENERATED",
			"originator": "ivanov",
			"type": "FLAKES",
			"mass": 10.1,
			"deadline": "2022-02-28T12:41:22.482Z",
			"objective": "Please do something with it",
			"comments": "- cat is not dog \n - white is not black"
		},
		{
			"id": 2,
			"date": "2022-02-14T12:41:22.482Z",
			"status": "GENERATED",
			"originator": "ivanov",
			"type": "FLAKES",
			"mass": 10.1,
			"deadline": "2022-02-28T12:41:22.482Z",
			"objective": "Please do something with it",
			"comments": "- cat is not dog \n - white is not black"
		},
		{
			"id": 3,
			"date": "2022-02-14T12:41:22.482Z",
			"status": "GENERATED",
			"originator": "ivanov",
			"type": "FLAKES",
			"mass": 10.1,
			"deadline": "2022-02-28T12:41:22.482Z",
			"objective": "Please do something with it",
			"comments": "- cat is not dog \n - white is not black"
		},
		{
			"id": 4,
			"date": "2022-02-14T12:41:22.482Z",
			"status": "GENERATED",
			"originator": "ivanov",
			"type": "FLAKES",
			"mass": 10.1,
			"deadline": "2022-02-28T12:41:22.482Z",
			"objective": "Please do something with it",
			"comments": "- cat is not dog \n - white is not black"
		},
		{
			"id": 5,
			"date": "2022-02-14T12:41:22.482Z",
			"status": "GENERATED",
			"originator": "ivanov",
			"type": "FLAKES",
			"mass": 10.1,
			"deadline": "2022-02-28T12:41:22.482Z",
			"objective": "Please do something with it",
			"comments": "- cat is not dog \n - white is not black"
		},
		{
			"id": 6,
			"date": "2022-02-14T12:41:22.482Z",
			"status": "GENERATED",
			"originator": "ivanov",
			"type": "FLAKES",
			"mass": 10.1,
			"deadline": "2022-02-28T12:41:22.482Z",
			"objective": "Please do something with it",
			"comments": "- cat is not dog \n - white is not black"
		},
		{
			"id": 7,
			"date": "2022-02-14T12:41:22.482Z",
			"status": "GENERATED",
			"originator": "ivanov",
			"type": "FLAKES",
			"mass": 10.1,
			"deadline": "2022-02-28T12:41:22.482Z",
			"objective": "Please do something with it",
			"comments": "- cat is not dog \n - white is not black"
		},
		{
			"id": 8,
			"date": "2022-02-14T12:41:22.482Z",
			"status": "GENERATED",
			"originator": "ivanov",
			"type": "FLAKES",
			"mass": 10.1,
			"deadline": "2022-02-28T12:41:22.482Z",
			"objective": "Please do something with it",
			"comments": "- cat is not dog \n - white is not black"
		},
		{
			"id": 9,
			"date": "2022-02-14T12:41:22.482Z",
			"status": "GENERATED",
			"originator": "ivanov",
			"type": "FLAKES",
			"mass": 10.1,
			"deadline": "2022-02-28T12:41:22.482Z",
			"objective": "Please do something with it",
			"comments": "- cat is not dog \n - white is not black"
		},
		{
			"id": 10,
			"date": "2022-02-14T12:41:22.482Z",
			"status": "GENERATED",
			"originator": "ivanov",
			"type": "FLAKES",
			"mass": 10.1,
			"deadline": "2022-02-28T12:41:22.482Z",
			"objective": "Please do something with it",
			"comments": null
		}
	]
}