{
	"totalElements": 50,
	"currentPage": 2,
	"totalPages": 5,
	"requests": [
		{
			"id": 10,
			"date": "2022-02-14T12:41:22.482Z",
			"status": "GENERATED",
			"originator": "ivanov",
			"type": "FLAKES",
			"mass": 10.1,
			"deadline": "2022-02-28T12:41:22.482Z",
			"objective": "Please do something with it",
			"comments": "- cat is not dog \n - white is not black"
		},
		{
			"id": 11,
			"date": "2022-02-14T12:41:22.482Z",
			"status": "GENERATED",
			"originator": "ivanov",
			"type": "FLAKES",
			"mass": 10.1,
			"deadline": "2022-02-28T12:41:22.482Z",
			"objective": "Please do something with it",
			"comments": "- cat is not dog \n - white is not black"
		},
		{
			"id": 12,
			"date": "2022-02-14T12:41:22.482Z",
			"status": "GENERATED",
			"originator": "ivanov",
			"type": "FLAKES",
			"mass": 10.1,
			"deadline": "2022-02-28T12:41:22.482Z",
			"objective": "Please do something with it",
			"comments": "- cat is not dog \n - white is not black"
		},
		{
			"id": 13,
			"date": "2022-02-14T12:41:22.482Z",
			"status": "GENERATED",
			"originator": "ivanov",
			"type": "FLAKES",
			"mass": 10.1,
			"deadline": "2022-02-28T12:41:22.482Z",
			"objective": "Please do something with it",
			"comments": "- cat is not dog \n - white is not black"
		},
		{
			"id": 14,
			"date": "2022-02-14T12:41:22.482Z",
			"status": "GENERATED",
			"originator": "ivanov",
			"type": "FLAKES",
			"mass": 10.1,
			"deadline": "2022-02-28T12:41:22.482Z",
			"objective": "Please do something with it",
			"comments": "- cat is not dog \n - white is not black"
		},
		{
			"id": 15,
			"date": "2022-02-14T12:41:22.482Z",
			"status": "GENERATED",
			"originator": "ivanov",
			"type": "FLAKES",
			"mass": 10.1,
			"deadline": "2022-02-28T12:41:22.482Z",
			"objective": "Please do something with it",
			"comments": "- cat is not dog \n - white is not black"
		},
		{
			"id": 16,
			"date": "2022-02-14T12:41:22.482Z",
			"status": "GENERATED",
			"originator": "ivanov",
			"type": "FLAKES",
			"mass": 10.1,
			"deadline": "2022-02-28T12:41:22.482Z",
			"objective": "Please do something with it",
			"comments": "- cat is not dog \n - white is not black"
		},
		{
			"id": 17,
			"date": "2022-02-14T12:41:22.482Z",
			"status": "GENERATED",
			"originator": "ivanov",
			"type": "FLAKES",
			"mass": 10.1,
			"deadline": "2022-02-28T12:41:22.482Z",
			"objective": "Please do something with it",
			"comments": "- cat is not dog \n - white is not black"
		},
		{
			"id": 18,
			"date": "2022-02-14T12:41:22.482Z",
			"status": "GENERATED",
			"originator": "ivanov",
			"type": "FLAKES",
			"mass": 10.1,
			"deadline": "2022-02-28T12:41:22.482Z",
			"objective": "Please do something with it",
			"comments": "- cat is not dog \n - white is not black"
		},
		{
			"id": 19,
			"date": "2022-02-14T12:41:22.482Z",
			"status": "GENERATED",
			"originator": "ivanov",
			"type": "FLAKES",
			"mass": 10.1,
			"deadline": "2022-02-28T12:41:22.482Z",
			"objective": "Please do something with it",
			"comments": null
		}
	]
}